Applying tidy principles to investigating chromatin composition and architecture • Bioc2024tidyWorkshop
…
tib <- read_tsv(bedf, col_names = FALSE)
#> Rows: 814 Columns: 3
#> ── Column specification ────────────────────────────────────────────────────────
#> Delimiter: "\t"
#> chr (1): X1
#> dbl (2): X2, X3
#> 
#> ℹ Use `spec()` to retrieve the full column specification for this data.
#> ℹ Specify the column types or set `show_col_types = FALSE` to quiet this message.

tib 
#> # A tibble: 814 × 3
#>    X1        X2     X3
#>    <chr>  <dbl>  <dbl>
#>  1 I      73000  74000
#>  2 I     108000 109000
#>  3 I     181000 182000
#>  4 II     90000  91000
#>  5 II    119000 120000
#>  6 II    136000 137000
#>  7 II    141000 142000
#>  8 II    146000 147000
#>  9 II    159000 160000
#> 10 II    198000 199000
#> # ℹ 804 more rows
…
bedpef <- system.file('extdata', 'S288C-loops.bedpe', package = 'Bioc2024tidyWorkshop', mustWork = TRUE)

tib <- read_tsv(bedpef, col_names = FALSE) 
#> Rows: 162 Columns: 6
#> ── Column specification ────────────────────────────────────────────────────────
#> Delimiter: "\t"
#> chr (2): X1, X4
#> dbl (4): X2, X3, X5, X6
#> 
#> ℹ Use `spec()` to retrieve the full column specification for this data.
#> ℹ Specify the column types or set `show_col_types = FALSE` to quiet this message.

tib
#> # A tibble: 162 × 6
#>    X1        X2     X3 X4        X5     X6
#>    <chr>  <dbl>  <dbl> <chr>  <dbl>  <dbl>
#>  1 I       3000   4000 I      29000  30000
#>  2 I      29000  30000 I      50000  51000
#>  3 I      95000  96000 I     128000 129000
#>  4 I     133000 134000 I     157000 158000
#>  5 II      8000   9000 II     46000  47000
#>  6 II     48000  49000 II     78000  79000
#>  7 II    149000 150000 II    174000 175000
#>  8 II    213000 214000 II    233000 234000
#>  9 II    247000 248000 II    282000 283000
#> 10 II    260000 261000 II    281000 282000
#> # ℹ 152 more rows
…
expand() or aggregate()

tib <- expand(ce)

tib
#> # A tibble: 21,402,000 × 8
#> # Groups:   track, features, ranges [7,134]
#>    track features chr   ranges         strand coord coverage coord.scaled
#>    <chr> <chr>    <chr> <chr>          <chr>  <dbl>    <dbl>        <dbl>
#>  1 mnase TSSs     II    II:4290-7289:+ +       4290        0        -1500
#>  2 mnase TSSs     II    II:4290-7289:+ +       4291        0        -1499
#>  3 mnase TSSs     II    II:4290-7289:+ +       4292        0        -1498
#>  4 mnase TSSs     II    II:4290-7289:+ +       4293        0        -1497
#>  5 mnase TSSs     II    II:4290-7289:+ +       4294        0        -1496
#>  6 mnase TSSs     II    II:4290-7289:+ +       4295        0        -1495
#>  7 mnase TSSs     II    II:4290-7289:+ +       4296        0        -1494
#>  8 mnase TSSs     II    II:4290-7289:+ +       4297        0        -1493
#>  9 mnase TSSs     II    II:4290-7289:+ +       4298        0        -1492
#> 10 mnase TSSs     II    II:4290-7289:+ +       4299        0        -1491
#> # ℹ 21,401,990 more rows
…
